user/sim/wave.vcd
$date
	Wed Sep 20 16:59:23 2023
$end
$version
	Icarus Verilog
$end
$timescale
	1s
$end
$scope module testbench $end
$var wire 16 ! S [15:0] $end
$var wire 1 " Co $end
$var parameter 32 # ADDR_WIDTH $end
$var parameter 32 $ DATA_WIDTH $end
$var parameter 32 % MAIN_FRE $end
$var reg 16 & A [15:0] $end
$var reg 16 ' B [15:0] $end
$var reg 1 ( Ci $end
$var reg 1 ) sys_clk $end
$var reg 1 * sys_clk_0 $end
$var reg 1 + sys_rst $end
$scope module u_CLA_16 $end
$var wire 16 , A [15:0] $end
$var wire 16 - B [15:0] $end
$var wire 1 ( Ci $end
$var wire 16 . S [15:0] $end
$var wire 4 / Pm [3:0] $end
$var wire 4 0 Gm [3:0] $end
$var wire 1 " Co $end
$var wire 4 1 C [3:0] $end
$scope begin CLU_4_gener[1] $end
$var parameter 2 2 i $end
$scope module u_CLA_4 $end
$var wire 4 3 A [3:0] $end
$var wire 4 4 B [3:0] $end
$var wire 1 5 Ci $end
$var wire 4 6 g [3:0] $end
$var wire 4 7 p [3:0] $end
$var wire 4 8 t [3:0] $end
$var wire 4 9 c [3:0] $end
$var wire 4 : S [3:0] $end
$var wire 1 ; Pm $end
$var wire 1 < Gm $end
$var wire 1 = Co $end
$var parameter 32 > GM_PM $end
$scope begin C_generate[0] $end
$var parameter 2 ? i $end
$scope begin genblk1 $end
$upscope $end
$upscope $end
$scope begin C_generate[1] $end
$var parameter 2 @ i $end
$scope begin genblk1 $end
$upscope $end
$upscope $end
$scope begin C_generate[2] $end
$var parameter 3 A i $end
$scope begin genblk1 $end
$upscope $end
$upscope $end
$scope begin C_generate[3] $end
$var parameter 3 B i $end
$scope begin genblk1 $end
$upscope $end
$upscope $end
$scope begin genblk2 $end
$upscope $end
$upscope $end
$upscope $end
$scope begin CLU_4_gener[2] $end
$var parameter 3 C i $end
$scope module u_CLA_4 $end
$var wire 4 D A [3:0] $end
$var wire 4 E B [3:0] $end
$var wire 1 F Ci $end
$var wire 4 G g [3:0] $end
$var wire 4 H p [3:0] $end
$var wire 4 I t [3:0] $end
$var wire 4 J c [3:0] $end
$var wire 4 K S [3:0] $end
$var wire 1 L Pm $end
$var wire 1 M Gm $end
$var wire 1 N Co $end
$var parameter 32 O GM_PM $end
$scope begin C_generate[0] $end
$var parameter 2 P i $end
$scope begin genblk1 $end
$upscope $end
$upscope $end
$scope begin C_generate[1] $end
$var parameter 2 Q i $end
$scope begin genblk1 $end
$upscope $end
$upscope $end
$scope begin C_generate[2] $end
$var parameter 3 R i $end
$scope begin genblk1 $end
$upscope $end
$upscope $end
$scope begin C_generate[3] $end
$var parameter 3 S i $end
$scope begin genblk1 $end
$upscope $end
$upscope $end
$scope begin genblk2 $end
$upscope $end
$upscope $end
$upscope $end
$scope begin CLU_4_gener[3] $end
$var parameter 3 T i $end
$scope module u_CLA_4 $end
$var wire 4 U A [3:0] $end
$var wire 4 V B [3:0] $end
$var wire 1 W Ci $end
$var wire 4 X g [3:0] $end
$var wire 4 Y p [3:0] $end
$var wire 4 Z t [3:0] $end
$var wire 4 [ c [3:0] $end
$var wire 4 \ S [3:0] $end
$var wire 1 ] Pm $end
$var wire 1 ^ Gm $end
$var wire 1 _ Co $end
$var parameter 32 ` GM_PM $end
$scope begin C_generate[0] $end
$var parameter 2 a i $end
$scope begin genblk1 $end
$upscope $end
$upscope $end
$scope begin C_generate[1] $end
$var parameter 2 b i $end
$scope begin genblk1 $end
$upscope $end
$upscope $end
$scope begin C_generate[2] $end
$var parameter 3 c i $end
$scope begin genblk1 $end
$upscope $end
$upscope $end
$scope begin C_generate[3] $end
$var parameter 3 d i $end
$scope begin genblk1 $end
$upscope $end
$upscope $end
$scope begin genblk2 $end
$upscope $end
$upscope $end
$upscope $end
$scope module u_CLA_4_0 $end
$var wire 4 e A [3:0] $end
$var wire 4 f B [3:0] $end
$var wire 1 ( Ci $end
$var wire 4 g g [3:0] $end
$var wire 4 h p [3:0] $end
$var wire 4 i t [3:0] $end
$var wire 4 j c [3:0] $end
$var wire 4 k S [3:0] $end
$var wire 1 l Pm $end
$var wire 1 m Gm $end
$var wire 1 n Co $end
$var parameter 32 o GM_PM $end
$scope begin C_generate[0] $end
$var parameter 2 p i $end
$scope begin genblk1 $end
$upscope $end
$upscope $end
$scope begin C_generate[1] $end
$var parameter 2 q i $end
$scope begin genblk1 $end
$upscope $end
$upscope $end
$scope begin C_generate[2] $end
$var parameter 3 r i $end
$scope begin genblk1 $end
$upscope $end
$upscope $end
$scope begin C_generate[3] $end
$var parameter 3 s i $end
$scope begin genblk1 $end
$upscope $end
$upscope $end
$scope begin genblk2 $end
$upscope $end
$upscope $end
$scope module u_CLU_u $end
$var wire 1 ( Ci $end
$var wire 4 t G [3:0] $end
$var wire 4 u P [3:0] $end
$var wire 4 v C [3:0] $end
$upscope $end
$upscope $end
$upscope $end
$enddefinitions $end
$comment Show the parameter values. $end
$dumpall
b11 s
b10 r
b1 q
b0 p
b1 o
b11 d
b10 c
b1 b
b0 a
b1 `
b11 T
b11 S
b10 R
b1 Q
b0 P
b1 O
b10 C
b11 B
b10 A
b1 @
b0 ?
b1 >
b1 2
b1100100 %
b10000 $
b10000 #
$end
#0
$dumpvars
b0 v
b0 u
b0 t
0n
0m
0l
b0 k
b0 j
b0 i
b0 h
b0 g
b0 f
b0 e
0_
0^
0]
b0 \
b0 [
b0 Z
b0 Y
b0 X
0W
b0 V
b0 U
0N
0M
0L
b0 K
b0 J
b0 I
b0 H
b0 G
0F
b0 E
b0 D
0=
0<
0;
b0 :
b0 9
b0 8
b0 7
b0 6
05
b0 4
b0 3
b0 1
b0 0
b0 /
bz0000000 .
b0 -
b0 ,
1+
0*
0)
0(
b0 '
b0 &
0"
bz0000000 !
$end
#5
1)
#10
0)
#15
1)
#20
0)
#25
1)
#30
0)
#35
1)
#40
0)
#45
1)
#50
0)
#55
1)
#60
0)
#65
1)
#70
0)
#75
1)
#80
0)
#85
1)
#90
0)
#95
1)
#100
0)
1*
#105
1)
#110
0)
#115
1)
#120
0)
#125
1)
#130
0)
#135
1)
#140
0)
#145
1)
#150
0)
#155
1)
#160
0)
#165
1)
#170
0)
#175
1)
#180
0)
#185
1)
#190
0)
#195
1)
#200
0)
0*
#205
1)
#210
0)
#215
1)
#220
0)
#225
1)
#230
0)
#235
1)
#240
0)
#245
1)
#250
0)
#255
1)
#260
0)
#265
1)
#270
0)
#275
1)
#280
0)
#285
1)
#290
0)
#295
1)
#300
0)
1*
#305
1)
#310
0)
#315
1)
#320
0)
#325
1)
#330
0)
#335
1)
#340
0)
#345
1)
#350
0)
#355
1)
#360
0)
#365
1)
#370
0)
#375
1)
#380
0)
#385
1)
#390
0)
#395
1)
#400
0)
0*
#405
1)
#410
0)
#415
1)
#420
0)
#425
1)
#430
0)
#435
1)
#440
0)
#445
1)
#450
0)
#455
1)
#460
0)
#465
1)
#470
0)
#475
1)
#480
0)
#485
1)
#490
0)
#495
1)
#500
bz0000001 !
bz0000001 .
b1 k
b1 i
b1 h
b1 f
b1 '
b1 -
0)
1*
0+
#505
b0 i
b1 g
b1 j
b1 e
bz00000x1 !
bz00000x1 .
b11 k
b1 &
b1 ,
1(
1)
#510
0)
#515
b1 :
b0 j
b1 8
b11 i
b1 7
b0 g
b11 h
bz0000011 !
bz0000011 .
b11 k
b1 3
b10 e
0(
b10 &
b10 ,
1)
#520
0)
#525
b10 i
b1 g
b11 j
b11 e
bz0000xx1 !
bz0000xx1 .
b101 k
b11 &
b11 ,
1(
1)
#530
0)
#535
b10 :
b1 K
b0 j
b10 8
b1 I
b101 i
b10 7
b1 H
b0 g
b101 h
bz0000101 !
bz0000101 .
b101 k
b10 3
b1 D
b100 e
0(
b100 &
b100 ,
1)
#540
0)
#545
b100 i
b1 g
b1 j
b101 e
bz00001x1 !
bz00001x1 .
b111 k
b101 &
b101 ,
1(
1)
#550
0)
#555
b11 :
b0 j
b11 8
b111 i
b11 7
b0 g
b111 h
bz0000111 !
bz0000111 .
b111 k
b11 3
b110 e
0(
b110 &
b110 ,
1)
#560
0)
#565
b110 i
b1 g
b111 j
b111 e
bz000xxx1 !
bz000xxx1 .
b1001 k
b111 &
b111 ,
1(
1)
#570
0)
#575
b100 :
b10 K
b1 \
b0 j
b100 8
b10 I
b1 Z
b1001 i
b100 7
b10 H
b1 Y
b0 g
b1001 h
bz0001001 !
bz0001001 .
b1001 k
b100 3
b10 D
b1 U
b1000 e
0(
b1000 &
b1000 ,
1)
#580
0)
#585
b1000 i
b1 g
b1 j
b1001 e
bz00010x1 !
bz00010x1 .
b1011 k
b1001 &
b1001 ,
1(
1)
#590
0)
#595
b101 :
b0 j
b101 8
b1011 i
b101 7
b0 g
b1011 h
bz0001011 !
bz0001011 .
b1011 k
b101 3
b1010 e
0(
b1010 &
b1010 ,
1)
#600
0)
0*
#605
b1010 i
b1 g
b11 j
b1011 e
bz0001xx1 !
bz0001xx1 .
b1101 k
b1011 &
b1011 ,
1(
1)
#610
0)
#615
b110 :
b11 K
b0 j
b110 8
b11 I
b1101 i
b110 7
b11 H
b0 g
b1101 h
bz0001101 !
bz0001101 .
b1101 k
b110 3
b11 D
b1100 e
0(
b1100 &
b1100 ,
1)
#620
0)
#625
b1100 i
b1 g
b1 j
b1101 e
bz00011x1 !
bz00011x1 .
b1111 k
b1101 &
b1101 ,
1(
1)
#630
0)
#635
b0 9
05
b0 1
b0 v
0n
b111 :
b0 0
b0 t
0m
b1 /
b1 u
1l
b0 j
b111 8
b1111 i
b111 7
b0 g
b1111 h
bz0001111 !
bz0001111 .
b1111 k
b111 3
b1110 e
0(
b1110 &
b1110 ,
1)
#640
0)
#645
b1 0
b1 t
1m
1n
b111 9
b1110 i
b1000 :
15
b1 g
b1111 j
b1 1
b1 v
b1111 e
bz00xxx01 !
bz00xxx01 .
b1 k
b1111 &
b1111 ,
1(
1)
#650
0)
#655
05
b0 1
b0 v
0n
b1000 :
b0 9
b100 K
b10 \
b0 0
b0 t
0m
b0 /
b0 u
0l
b0 j
b1000 8
b100 I
b10 Z
b1 i
b1000 7
b100 H
b10 Y
b0 g
b1 h
bz0010001 !
bz0010001 .
b1 k
b1000 3
b100 D
b10 U
b0 e
0(
b10000 &
b10000 ,
1)
#660
0)
#665
b0 i
b1 g
b1 j
b1 e
bz00100x1 !
bz00100x1 .
b11 k
b10001 &
b10001 ,
1(
1)
#670
0)
#675
b1001 :
b0 j
b1001 8
b11 i
b1001 7
b0 g
b11 h
bz0010011 !
bz0010011 .
b11 k
b1001 3
b10 e
0(
b10010 &
b10010 ,
1)
#680
0)
#685
b10 i
b1 g
b11 j
b11 e
bz0010xx1 !
bz0010xx1 .
b101 k
b10011 &
b10011 ,
1(
1)
#690
0)
#695
b1010 :
b101 K
b0 j
b1010 8
b101 I
b101 i
b1010 7
b101 H
b0 g
b101 h
bz0010101 !
bz0010101 .
b101 k
b1010 3
b101 D
b100 e
0(
b10100 &
b10100 ,
1)
#700
b1011 :
bz0010110 !
bz0010110 .
b110 k
b1011 8
b110 i
b1011 7
b110 h
b1 4
b10 f
b10 '
b10 -
0)
1*
#705
b111 j
b111 i
b111 h
b101 e
bz001xxx0 !
bz001xxx0 .
b1000 k
b10101 &
b10101 ,
1(
1)
#710
0)
#715
b1100 :
b1010 8
b11 9
b100 i
b110 j
b1 6
b10 g
b110 h
bz001xx00 !
bz001xx00 .
b1000 k
b1011 3
b110 e
0(
b10110 &
b10110 ,
1)
#720
0)
#725
b111 j
b101 i
b111 h
b111 e
bz001xxx0 !
bz001xxx0 .
b1010 k
b10111 &
b10111 ,
1(
1)
#730
0)
#735
b1101 :
b110 K
b11 \
b0 9
b1101 8
b110 I
b11 Z
b1010 i
b0 j
b0 6
b1101 7
b110 H
b11 Y
b0 g
b1010 h
bz0011010 !
bz0011010 .
b1010 k
b1100 3
b110 D
b11 U
b1000 e
0(
b11000 &
b11000 ,
1)
#740
0)
#745
b11 j
b1011 i
b1011 h
b1001 e
bz0011xx0 !
bz0011xx0 .
b1100 k
b11001 &
b11001 ,
1(
1)
#750
0)
#755
b1110 :
b1100 8
b1 9
b1000 i
b10 j
b1 6
b10 g
b1010 h
bz0011x00 !
bz0011x00 .
b1100 k
b1101 3
b1010 e
0(
b11010 &
b11010 ,
1)
#760
0)
#765
b11 j
b1001 i
b1011 h
b1011 e
bz0011xx0 !
bz0011xx0 .
b1110 k
b11011 &
b11011 ,
1(
1)
#770
0)
#775
b0 J
0F
05
b0 1
b0 v
0n
0=
0m
b1111 :
b0 0
b0 t
0<
b10 /
b10 u
1;
b111 K
b0 9
b1111 8
b111 I
b1110 i
b0 j
b0 6
b1111 7
b111 H
b0 g
b1110 h
bz0011110 !
bz0011110 .
b1110 k
b1110 3
b111 D
b1100 e
0(
b11100 &
b11100 ,
1)
#780
0)
#785
1=
b1111 9
b111 J
b0 :
b1000 K
15
1F
b11 1
b11 v
1n
b1111 j
b11 /
b11 u
1l
b1111 i
b1111 h
b1101 e
bz0xxx000 !
bz0xxx000 .
b0 k
b11101 &
b11101 ,
1(
1)
#790
0)
#795
1<
b11 0
b11 t
1m
b111 J
1n
b1000 K
b1 :
1F
b1110 8
b10 /
b10 u
0l
15
b1100 i
b1110 j
b11 1
b11 v
b1 6
b10 g
b1110 h
bz0xxx0x0 !
bz0xxx0x0 .
b0 k
b1111 3
b1110 e
0(
b11110 &
b11110 ,
1)
#800
0)
0*
#805
b1111 j
b11 /
b11 u
1l
b1101 i
b1111 h
b1111 e
bz0xxx010 !
bz0xxx010 .
b10 k
b11111 &
b11111 ,
1(
1)
#810
0)
#815
0F
05
b0 1
b0 v
0n
0=
b0 9
0m
b1 :
b0 0
b0 t
0<
0;
b1000 K
b0 J
b100 \
b0 /
b0 u
0l
b1 8
b1000 I
b100 Z
b10 i
b0 j
b0 6
b1 7
b1000 H
b100 Y
b0 g
b10 h
bz0100010 !
bz0100010 .
b10 k
b0 3
b1000 D
b100 U
b0 e
0(
b100000 &
b100000 ,
1)
#820
0)
#825
b11 j
b11 i
b11 h
b1 e
bz0100xx0 !
bz0100xx0 .
b100 k
b100001 &
b100001 ,
1(
1)
#830
0)
#835
b10 :
b0 8
b1 9
b0 i
b10 j
b1 6
b10 g
b10 h
bz0100x00 !
bz0100x00 .
b100 k
b1 3
b10 e
0(
b100010 &
b100010 ,
1)
#840
0)
#845
b11 j
b1 i
b11 h
b11 e
bz0100xx0 !
bz0100xx0 .
b110 k
b100011 &
b100011 ,
1(
1)
#850
0)
#855
b11 :
b1001 K
b0 9
b11 8
b1001 I
b110 i
b0 j
b0 6
b11 7
b1001 H
b0 g
b110 h
bz0100110 !
bz0100110 .
b110 k
b10 3
b1001 D
b100 e
0(
b100100 &
b100100 ,
1)
#860
0)
#865
b111 j
b111 i
b111 h
b101 e
bz010xxx0 !
bz010xxx0 .
b1000 k
b100101 &
b100101 ,
1(
1)
#870
0)
#875
b100 :
b10 8
b11 9
b100 i
b110 j
b1 6
b10 g
b110 h
bz010xx00 !
bz010xx00 .
b1000 k
b11 3
b110 e
0(
b100110 &
b100110 ,
1)
#880
0)
#885
b111 j
b101 i
b111 h
b111 e
bz010xxx0 !
bz010xxx0 .
b1010 k
b100111 &
b100111 ,
1(
1)
#890
0)
#895
b101 :
b1010 K
b101 \
b0 9
b101 8
b1010 I
b101 Z
b1010 i
b0 j
b0 6
b101 7
b1010 H
b101 Y
b0 g
b1010 h
bz0101010 !
bz0101010 .
b1010 k
b100 3
b1010 D
b101 U
b1000 e
0(
b101000 &
b101000 ,
1)
#900
bz0101011 !
bz0101011 .
b1011 k
b1011 i
b1011 h
b11 f
b11 '
b11 -
0)
1*
#905
b1010 i
b1 g
b11 j
b1001 e
bz0101xx1 !
bz0101xx1 .
b1101 k
b101001 &
b101001 ,
1(
1)
#910
0)
#915
b110 :
b100 8
b1 9
b1001 i
b10 j
b1 6
b10 g
bz0101x01 !
bz0101x01 .
b1101 k
b101 3
b1010 e
0(
b101010 &
b101010 ,
1)
#920
0)
#925
b1000 i
b11 g
b11 j
b1011 e
bz0101xx1 !
bz0101xx1 .
b1111 k
b101011 &
b101011 ,
1(
1)
#930
0)
#935
05
b0 1
b0 v
0n
b0 0
b0 t
0m
b1 /
b1 u
1l
b111 :
b1011 K
b0 9
b0 j
b111 8
b1011 I
b1111 i
b0 6
b111 7
b1011 H
b0 g
b1111 h
bz0101111 !
bz0101111 .
b1111 k
b110 3
b1011 D
b1100 e
0(
b101100 &
b101100 ,
1)
#940
0)
#945
b1 0
b1 t
1m
1n
b111 9
b1110 i
b1000 :
15
b1 g
b1111 j
b1 1
b1 v
b1101 e
bz01xxx01 !
bz01xxx01 .
b1 k
b101101 &
b101101 ,
1(
1)
#950
0)
#955
b1001 :
b110 8
b1101 i
b1110 j
b1 6
b10 g
bz01xxxx1 !
bz01xxxx1 .
b1 k
b111 3
b1110 e
0(
b101110 &
b101110 ,
1)
#960
0)
#965
b1100 i
b11 g
b1111 j
b1111 e
bz01xxx11 !
bz01xxx11 .
b11 k
b101111 &
b101111 ,
1(
1)
#970
0)
#975
05
b0 1
b0 v
0n
b0 9
b0 0
b0 t
0m
b0 /
b0 u
0l
b1001 :
b1100 K
b110 \
b0 j
b1001 8
b1100 I
b110 Z
b11 i
b0 6
b1001 7
b1100 H
b110 Y
b0 g
b11 h
bz0110011 !
bz0110011 .
b11 k
b1000 3
b1100 D
b110 U
b0 e
0(
b110000 &
b110000 ,
1)
#980
0)
#985
b10 i
b1 g
b11 j
b1 e
bz0110xx1 !
bz0110xx1 .
b101 k
b110001 &
b110001 ,
1(
1)
#990
0)
#995
b1010 :
b1000 8
b1 9
b1 i
b10 j
b1 6
b10 g
bz0110x01 !
bz0110x01 .
b101 k
b1001 3
b10 e
0(
b110010 &
b110010 ,
1)
#1000
0)
0*
#1005
b0 i
b11 g
b11 j
b11 e
bz0110xx1 !
bz0110xx1 .
b111 k
b110011 &
b110011 ,
1(
1)
#1010
0)
#1015
b1011 :
b1101 K
b0 9
b0 j
b1011 8
b1101 I
b111 i
b0 6
b1011 7
b1101 H
b0 g
b111 h
bz0110111 !
bz0110111 .
b111 k
b1010 3
b1101 D
b100 e
0(
b110100 &
b110100 ,
1)
#1020
0)
#1025
b110 i
b1 g
b111 j
b101 e
bz011xxx1 !
bz011xxx1 .
b1001 k
b110101 &
b110101 ,
1(
1)
#1030
0)
#1035
b1100 :
b1010 8
b11 9
b101 i
b110 j
b1 6
b10 g
bz011xx01 !
bz011xx01 .
b1001 k
b1011 3
b110 e
0(
b110110 &
b110110 ,
1)
#1040
0)
#1045
b100 i
b11 g
b111 j
b111 e
bz011xxx1 !
bz011xxx1 .
b1011 k
b110111 &
b110111 ,
1(
1)
#1050
0)
#1055
b1101 :
b1110 K
b111 \
b0 9
b0 j
b1101 8
b1110 I
b111 Z
b1011 i
b0 6
b1101 7
b1110 H
b111 Y
b0 g
b1011 h
bz0111011 !
bz0111011 .
b1011 k
b1100 3
b1110 D
b111 U
b1000 e
0(
b111000 &
b111000 ,
1)
#1060
0)
#1065
b1010 i
b1 g
b11 j
b1001 e
bz0111xx1 !
bz0111xx1 .
b1101 k
b111001 &
b111001 ,
1(
1)
#1070
0)
#1075
b1110 :
b1100 8
b1 9
b1001 i
b10 j
b1 6
b10 g
bz0111x01 !
bz0111x01 .
b1101 k
b1101 3
b1010 e
0(
b111010 &
b111010 ,
1)
#1080
0)
#1085
b1000 i
b11 g
b11 j
b1011 e
bz0111xx1 !
bz0111xx1 .
b1111 k
b111011 &
b111011 ,
1(
1)
#1090
0)
#1095
0N
b0 [
b111 \
b0 J
0W
0F
05
b0 1
b0 v
0n
0=
0m
1l
b1111 :
b0 0
b0 t
0<
1;
b1111 K
b0 9
b111 /
b111 u
1L
b0 j
b1111 8
b1111 I
b1111 i
b0 6
b1111 7
b1111 H
b0 g
b1111 h
bz0111111 !
bz0111111 .
b1111 k
b1110 3
b1111 D
b1100 e
0(
b111100 &
b111100 ,
1)
#1100
b111 [
b1000 \
1W
1F
15
1=
1N
b111 1
b111 v
1n
1<
1M
b111 0
b111 t
1m
b1 K
b1100 j
b1110 9
b1 :
bz1000xx0 !
bz1000xx0 .
b0 k
0;
b1110 I
b1111 J
b100 /
b100 u
0l
b1100 8
b1000 i
b10 6
b1110 7
b1 G
b100 g
b1100 h
b10 4
b1 E
b100 f
b100 '
b100 -
0)
1*
#1105
b1101 j
b1001 i
b1101 h
b1101 e
bz1000x10 !
bz1000x10 .
b10 k
b111101 &
b111101 ,
1(
1)
#1110
0)
#1115
b10 :
b1111 9
b110 /
b110 u
1;
b1101 8
b1010 i
b1100 j
b1111 7
b1110 h
bz1000xx0 !
bz1000xx0 .
b10 k
b1111 3
b1110 e
0(
b111110 &
b111110 ,
1)
#1120
0)
#1125
b1111 j
b111 /
b111 u
1l
b1011 i
b1111 h
b1111 e
bz1000100 !
bz1000100 .
b100 k
b111111 &
b111111 ,
1(
1)
#1130
0)
#1135
0F
05
0W
0n
b0 1
b0 v
0=
0N
0m
0<
b0 J
b10 :
b0 9
b1 K
b0 0
b0 t
0M
0L
b1000 \
b0 [
0;
b0 /
b0 u
0l
b10 8
b1 I
b1000 Z
b100 i
b0 j
b0 6
b10 7
b0 G
b1 H
b1000 Y
b0 g
b100 h
bz1000100 !
bz1000100 .
b100 k
b0 3
b0 D
b1000 U
b0 e
0(
b1000000 &
b1000000 ,
1)
#1140
0)
#1145
b1 j
b101 i
b101 h
b1 e
bz10001x0 !
bz10001x0 .
b110 k
b1000001 &
b1000001 ,
1(
1)
#1150
0)
#1155
b11 :
b11 8
b110 i
b0 j
b11 7
b110 h
bz1000110 !
bz1000110 .
b110 k
b1 3
b10 e
0(
b1000010 &
b1000010 ,
1)
#1160
0)
#1165
b111 j
b111 i
b111 h
b11 e
bz100xxx0 !
bz100xxx0 .
b1000 k
b1000011 &
b1000011 ,
1(
1)
#1170
0)
#1175
b10 K
b10 9
b100 :
b0 I
b1 J
b0 8
b0 i
b100 j
b10 6
b10 7
b1 G
b100 g
b100 h
bz100x000 !
bz100x000 .
b1000 k
b10 3
b1 D
b100 e
0(
b1000100 &
b1000100 ,
1)
#1180
0)
#1185
b101 j
b1 i
b101 h
b101 e
bz100x0x0 !
bz100x0x0 .
b1010 k
b1000101 &
b1000101 ,
1(
1)
#1190
0)
#1195
b101 :
b1 8
b10 i
b100 j
b11 7
b110 h
bz100x010 !
bz100x010 .
b1010 k
b11 3
b110 e
0(
b1000110 &
b1000110 ,
1)
#1200
0)
0*
#1205
b111 j
b11 i
b111 h
b111 e
bz100xxx0 !
bz100xxx0 .
b1100 k
b1000111 &
b1000111 ,
1(
1)
#1210
0)
#1215
b0 9
b110 :
b11 K
b1001 \
b0 J
b110 8
b11 I
b1001 Z
b1100 i
b0 j
b0 6
b110 7
b0 G
b11 H
b1001 Y
b0 g
b1100 h
bz1001100 !
bz1001100 .
b1100 k
b100 3
b10 D
b1001 U
b1000 e
0(
b1001000 &
b1001000 ,
1)
#1220
0)
#1225
b1 j
b1101 i
b1101 h
b1001 e
bz10011x0 !
bz10011x0 .
b1110 k
b1001001 &
b1001001 ,
1(
1)
#1230
0)
#1235
b111 :
b111 8
b1110 i
b0 j
b111 7
b1110 h
bz1001110 !
bz1001110 .
b1110 k
b101 3
b1010 e
0(
b1001010 &
b1001010 ,
1)
#1240
0)
#1245
b111 9
b1000 :
15
b1 1
b1 v
1n
b1111 j
b1 /
b1 u
1l
b1111 i
b1111 h
b1011 e
bz10xxx00 !
bz10xxx00 .
b0 k
b1001011 &
b1001011 ,
1(
1)
#1250
0)
#1255
b1001 :
b1 0
b1 t
1m
b100 K
1n
b110 9
b10 I
b11 J
b0 /
b0 u
0l
15
b100 8
b1000 i
b1100 j
b1 1
b1 v
b10 6
b110 7
b1 G
b100 g
b1100 h
bz10xx0x0 !
bz10xx0x0 .
b0 k
b110 3
b11 D
b1100 e
0(
b1001100 &
b1001100 ,
1)
#1260
0)
#1265
b1101 j
b1001 i
b1101 h
b1101 e
bz10xx010 !
bz10xx010 .
b10 k
b1001101 &
b1001101 ,
1(
1)
#1270
0)
#1275
b1010 :
b111 9
b101 8
b1010 i
b1100 j
b111 7
b1110 h
bz10xxxx0 !
bz10xxxx0 .
b10 k
b111 3
b1110 e
0(
b1001110 &
b1001110 ,
1)
#1280
0)
#1285
b1111 j
b1 /
b1 u
1l
b1011 i
b1111 h
b1111 e
bz10xxx00 !
bz10xxx00 .
b100 k
b1001111 &
b1001111 ,
1(
1)
#1290
0)
#1295
05
b0 1
b0 v
0n
b0 0
b0 t
0m
b1010 :
b0 9
b101 K
b1010 \
b0 J
b0 /
b0 u
0l
b1010 8
b101 I
b1010 Z
b100 i
b0 j
b0 6
b1010 7
b0 G
b101 H
b1010 Y
b0 g
b100 h
bz1010100 !
bz1010100 .
b100 k
b1000 3
b100 D
b1010 U
b0 e
0(
b1010000 &
b1010000 ,
1)
#1300
bz1010101 !
bz1010101 .
b101 k
b101 i
b101 h
b101 f
b101 '
b101 -
0)
1*
#1305
b100 i
b1 g
b1 j
b1 e
bz10101x1 !
bz10101x1 .
b111 k
b1010001 &
b1010001 ,
1(
1)
#1310
0)
#1315
b1011 :
b0 j
b1011 8
b111 i
b1011 7
b0 g
b111 h
bz1010111 !
bz1010111 .
b111 k
b1001 3
b10 e
0(
b1010010 &
b1010010 ,
1)
#1320
0)
#1325
b110 i
b1 g
b111 j
b11 e
bz101xxx1 !
bz101xxx1 .
b1001 k
b1010011 &
b1010011 ,
1(
1)
#1330
0)
#1335
b110 K
b10 9
b1100 :
b100 I
b1 J
b100 j
b1000 8
b1 i
b10 6
b1010 7
b1 G
b100 g
b101 h
bz101x001 !
bz101x001 .
b1001 k
b1010 3
b101 D
b100 e
0(
b1010100 &
b1010100 ,
1)
#1340
0)
#1345
b0 i
b101 g
b101 j
b101 e
bz101x0x1 !
bz101x0x1 .
b1011 k
b1010101 &
b1010101 ,
1(
1)
#1350
0)
#1355
b1101 :
b100 j
b1001 8
b11 i
b1011 7
b100 g
b111 h
bz101x011 !
bz101x011 .
b1011 k
b1011 3
b110 e
0(
b1010110 &
b1010110 ,
1)
#1360
0)
#1365
b10 i
b101 g
b111 j
b111 e
bz101xxx1 !
bz101xxx1 .
b1101 k
b1010111 &
b1010111 ,
1(
1)
#1370
0)
#1375
0F
b0 1
b0 v
0=
b0 0
b0 t
0<
b0 9
b1110 :
b111 K
b1011 \
b0 J
b0 j
b1110 8
b111 I
b1011 Z
b1101 i
b0 6
b1110 7
b0 G
b111 H
b1011 Y
b0 g
b1101 h
bz1011101 !
bz1011101 .
b1101 k
b1100 3
b110 D
b1011 U
b1000 e
0(
b1011000 &
b1011000 ,
1)
#1380
0)
#1385
b1100 i
b1 g
b1 j
b1001 e
bz10111x1 !
bz10111x1 .
b1111 k
b1011001 &
b1011001 ,
1(
1)
#1390
0)
#1395
0=
b0 J
b111 K
b0 9
0F
05
b0 1
b0 v
0n
b1111 :
b0 0
b0 t
0m
1l
b11 /
b11 u
1;
b0 j
b1111 8
b1111 i
b1111 7
b0 g
b1111 h
bz1011111 !
bz1011111 .
b1111 k
b1101 3
b1010 e
0(
b1011010 &
b1011010 ,
1)
#1400
0)
0*
#1405
1=
b1 0
b1 t
1m
1n
b111 J
b1111 9
b1000 K
b1110 i
b0 :
1F
15
b1 g
b1111 j
b11 1
b11 v
b1011 e
bz1xxx001 !
bz1xxx001 .
b1 k
b1011011 &
b1011011 ,
1(
1)
#1410
0)
#1415
1F
15
1<
b11 1
b11 v
1n
1=
b1001 K
b1 :
b1110 9
b11 0
b11 t
1m
0l
b0 /
b0 u
0;
b110 I
b1100 j
b1100 8
b1001 i
b10 6
b1110 7
b1 G
b100 g
b1101 h
bz1xxxxx1 !
bz1xxxxx1 .
b1 k
b1110 3
b111 D
b1100 e
0(
b1011100 &
b1011100 ,
1)
#1420
0)
#1425
b1000 i
b101 g
b1101 j
b1101 e
bz1xxxx11 !
bz1xxxx11 .
b11 k
b1011101 &
b1011101 ,
1(
1)
#1430
0)
#1435
b10 :
b1111 9
1l
b11 /
b11 u
1;
b1100 j
b1101 8
b1011 i
b1111 7
b100 g
b1111 h
bz1xxxxx1 !
bz1xxxxx1 .
b11 k
b1111 3
b1110 e
0(
b1011110 &
b1011110 ,
1)
#1440
0)
#1445
b1010 i
b101 g
b1111 j
b1111 e
bz1xxx101 !
bz1xxx101 .
b101 k
b1011111 &
b1011111 ,
1(
1)
#1450
0)
#1455
0F
05
b0 1
b0 v
0n
0=
0m
b0 0
b0 t
0<
b0 J
b10 :
b0 9
b1001 K
b1100 \
0l
b0 /
b0 u
0;
b0 j
b10 8
b1001 I
b1100 Z
b101 i
b0 6
b10 7
b0 G
b1001 H
b1100 Y
b0 g
b101 h
bz1100101 !
bz1100101 .
b101 k
b0 3
b1000 D
b1100 U
b0 e
0(
b1100000 &
b1100000 ,
1)
#1460
0)
#1465
b100 i
b1 g
b1 j
b1 e
bz11001x1 !
bz11001x1 .
b111 k
b1100001 &
b1100001 ,
1(
1)
#1470
0)
#1475
b11 :
b0 j
b11 8
b111 i
b11 7
b0 g
b111 h
bz1100111 !
bz1100111 .
b111 k
b1 3
b10 e
0(
b1100010 &
b1100010 ,
1)
#1480
0)
#1485
b110 i
b1 g
b111 j
b11 e
bz110xxx1 !
bz110xxx1 .
b1001 k
b1100011 &
b1100011 ,
1(
1)
#1490
0)
#1495
b1010 K
b10 9
b100 :
b1000 I
b1 J
b100 j
b0 8
b1 i
b10 6
b10 7
b1 G
b100 g
b101 h
bz110x001 !
bz110x001 .
b1001 k
b10 3
b1001 D
b100 e
0(
b1100100 &
b1100100 ,
1)
